<svg width="48px" height="48px" viewBox="0 0 48 48" xmlns="http://www.w3.org/2000/svg">
  <g fill="#000000" fill-rule="evenodd" fill-opacity="0.8" opacity="0.9">
    <rect id="burger-line-1" x="9" y="14" width="30" height="3"></rect>
    <rect id="burger-line-2" x="9" y="22" width="30" height="3"></rect>
    <rect id="burger-line-3" x="9" y="30" width="30" height="3"></rect>
  </g>
</svg>